{
 "home_dir":"/usr/local/etc/vivabill/",
 "data_dir":"/usr/local/etc/vivabill/data/",
 "driver_dir":"/usr/local/etc/vivabill/driver/",
 "pid_dir":"/var/run/",
 "log_dir":"/var/log/vivabill/",
 "facter_dir":"/usr/local/etc/",
 "sysconfig_dir":"/usr/local/etc/",
 "dhcp_dir":"/usr/local/etc/",
 "snmp_dir":"/usr/local/etc/snmp/",
 "traps_dir":"/usr/local/etc/vivabill/traps/",
 "tftp_config":"/tftpboot/config/",
 "tftp_process":"/tftpboot/process/",
 "tftp_source":"/tftpboot/source/",
 "ovsp_dir":"/usr/local/etc/vivabill/ovsp/",
 "comx_dir":"/usr/local/etc/vivabill/comx/",
 "alarm_dir":"/usr/local/etc/vivabill/alarm/",
 "stat_dir":"/usr/local/etc/vivabill/stat/",
 "cmts_dir":"/usr/local/etc/vivabill/cmts/",
 "gpon_dir":"/usr/local/etc/vivabill/gpon/",
 "certs_dir":"/usr/local/etc/vivabill/certs/",
 "errors_dir":"/usr/local/etc/vivabill/errors/",
 "docx_stat_dir":"/usr/local/etc/vivarc/arc_docx/",
 "gpon_stat_dir":"/usr/local/etc/vivarc/arc_gpon/"
}
